<?xml version="1.0" encoding="utf-8"?>
<!-- Generator: Adobe Illustrator 21.0.2, SVG Export Plug-In . SVG Version: 6.00 Build 0)  -->
<svg version="1.1" id="Layer_1" xmlns="http://www.w3.org/2000/svg" xmlns:xlink="http://www.w3.org/1999/xlink" x="0px" y="0px"
	 viewBox="0 0 512 381.8" style="enable-background:new 0 0 512 381.8;" xml:space="preserve">
<style type="text/css">
	.st0{fill:#015178;}
</style>
<path class="st0" d="M173.9,374.3L7.5,207.9c-10-10-10-26.2,0-36.2l36.2-36.2c10-10,26.2-10,36.2,0L192,247.6L432.1,7.5
	c10-10,26.2-10,36.2,0l36.2,36.2c10,10,10,26.2,0,36.2L210.1,374.3C200.1,384.3,183.9,384.3,173.9,374.3L173.9,374.3z"/>
</svg>
