<?xml version="1.0" encoding="utf-8"?>
<!-- Generator: Adobe Illustrator 22.0.0, SVG Export Plug-In . SVG Version: 6.00 Build 0)  -->
<svg version="1.1" id="Layer_1" xmlns="http://www.w3.org/2000/svg" xmlns:xlink="http://www.w3.org/1999/xlink" x="0px" y="0px"
	 viewBox="0 0 320.1 448" style="enable-background:new 0 0 320.1 448;" xml:space="preserve">
<style type="text/css">
	.st0{fill:#526173;}
</style>
<path class="st0" d="M288,256H32c-28.4,0-42.8,34.5-22.6,54.6l128,128c12.5,12.5,32.8,12.5,45.3,0l128-128
	C330.7,290.5,316.4,256,288,256z M160,416L32,288h256L160,416z M32,192h256c28.4,0,42.8-34.5,22.6-54.6l-128-128
	c-12.5-12.5-32.8-12.5-45.3,0l-128,128C-10.7,157.5,3.6,192,32,192z M160,32l128,128H32L160,32z"/>
</svg>
